…
First, read and tidy the raw data.

``` r
homicide_url = "https://raw.githubusercontent.com/washingtonpost/data-homicides/master/homicide-data.csv"

homicide_data = 
  read.csv(url(homicide_url), stringsAsFactors = FALSE) %>% 
  janitor::clean_names() %>% 
  as_tibble()

homicide_data
```

    ## # A tibble: 52,179 x 12
    ##    uid   reported_date victim_last victim_first victim_race victim_age
    ##    <chr>         <int> <chr>       <chr>        <chr>       <chr>     
    ##  1 Alb-~      20100504 GARCIA      JUAN         Hispanic    78        
    ##  2 Alb-~      20100216 MONTOYA     CAMERON      Hispanic    17        
    ##  3 Alb-~      20100601 SATTERFIELD VIVIANA      White       15        
    ##  4 Alb-~      20100101 MENDIOLA    CARLOS       Hispanic    32        
    ##  5 Alb-~      20100102 MULA        VIVIAN       White       72        
    ##  6 Alb-~      20100126 BOOK        GERALDINE    White       91        
    ##  7 Alb-~      20100127 MALDONADO   DAVID        Hispanic    52        
    ##  8 Alb-~      20100127 MALDONADO   CONNIE       Hispanic    52        
    ##  9 Alb-~      20100130 MARTIN-LEY~ GUSTAVO      White       56        
    ## 10 Alb-~      20100210 HERRERA     ISRAEL       Hispanic    43        
    ## # ... with 52,169 more rows, and 6 more variables: victim_sex <chr>,
    ## #   city <chr>, state <chr>, lat <dbl>, lon <chr>, disposition <chr>
…
